{
    "/js/app.js": "/js/app.js?id=b3529ac40c6b4fd96f69a8a214e8cee8",
    "/js/manifest.js": "/js/manifest.js?id=0ecd257e36664d66810f5526fe58d7fc",
    "/css/app.css": "/css/app.css?id=104edc980dadf4d25785a87ec157f21d",
    "/js/vendor.js": "/js/vendor.js?id=0f9d934328ae8de2e41240cc981baa34"
}
